TP;TN;FP;FN;FPR;TPR;
18;2;6;14;0,3;0,9;
19;1;0;20;0;0,95;
20;0;9;11;0,45;1;
13;7;2;18;0,1;0,65;
18;2;1;19;0,05;0,9;
14;6;6;14;0,3;0,7;
18;2;10;10;0,5;0,9;
19;1;5;15;0,25;0,95;
16;4;6;14;0,3;0,8;
16;4;2;18;0,1;0,8;
20;0;6;14;0,3;1;
20;0;0;20;0;1;
18;2;0;20;0;0,9;
19;1;14;6;0,7;0,95;
19;1;0;20;0;0,95;
19;1;10;10;0,5;0,95;
20;0;13;7;0,65;1;
20;0;2;18;0,1;1;
19;1;0;20;0;0,95;
20;0;0;20;0;1;
16;4;9;11;0,45;0,8;
18;2;0;20;0;0,9;
14;6;0;20;0;0,7;
19;1;0;20;0;0,95;
15;5;8;12;0,4;0,75;
18;2;0;20;0;0,9;
16;4;0;20;0;0,8;
19;1;0;20;0;0,95;
19;1;5;15;0,25;0,95;
16;4;0;20;0;0,8;
18;2;0;20;0;0,9;
20;0;17;3;0,85;1;
16;4;1;19;0,05;0,8;
18;2;0;20;0;0,9;
16;4;0;20;0;0,8;
18;2;5;15;0,25;0,9;
18;2;0;20;0;0,9;
17;3;0;20;0;0,85;
19;1;0;20;0;0,95;
18;2;0;20;0;0,9;
713;87;137;663;0,17125;0,89125;Suma
